%YAML 1.1
%TAG !u! tag:unity3d.com,2011:
--- !u!74 &7400000
AnimationClip:
  m_ObjectHideFlags: 0
  m_CorrespondingSourceObject: {fileID: 0}
  m_PrefabInstance: {fileID: 0}
  m_PrefabAsset: {fileID: 0}
  m_Name: bored
  serializedVersion: 6
  m_Legacy: 0
  m_Compressed: 0
  m_UseHighQualityCurve: 1
  m_RotationCurves: []
  m_CompressedRotationCurves: []
  m_EulerCurves: []
  m_PositionCurves: []
  m_ScaleCurves: []
  m_FloatCurves: []
  m_PPtrCurves:
  - curve:
    - time: 0
      value: {fileID: 21300000, guid: dde6c7a70e174504c9534af5a3ba27a5, type: 3}
    - time: 0.25
      value: {fileID: 21300000, guid: 035eace070425b74e8ad3c63542ed199, type: 3}
    - time: 0.48333332
      value: {fileID: 21300000, guid: 9decb4128e2699347a79f65bacd28589, type: 3}
    - time: 0.71666664
      value: {fileID: 21300000, guid: 537aad1bcc6979b40aef4597c15af49f, type: 3}
    - time: 1.0333333
      value: {fileID: 21300000, guid: 871355636a0e1254b82ea91ea35f535c, type: 3}
    - time: 1.2833333
      value: {fileID: 21300000, guid: 7b3422db432d9f84ab4ccfe069f856db, type: 3}
    - time: 1.5
      value: {fileID: 21300000, guid: befc147c90a8212409040648c01e7438, type: 3}
    - time: 1.75
      value: {fileID: 21300000, guid: ddd57e2d63ff2264bb8f1273c39a30d7, type: 3}
    - time: 2
      value: {fileID: 21300000, guid: 659eabe2398f41446aec3c7c9ba04ac1, type: 3}
    - time: 2.2333333
      value: {fileID: 21300000, guid: ceb385cabf433734ebad2b364498921a, type: 3}
    - time: 2.4833333
      value: {fileID: 21300000, guid: b1f7acede9e548243bfec2ff51d36e1c, type: 3}
    - time: 2.7666667
      value: {fileID: 21300000, guid: b0445ca25d55b724e9349d45a2b179b3, type: 3}
    - time: 3
      value: {fileID: 21300000, guid: d341b657d796df749a40fb1ce3ec1a62, type: 3}
    - time: 3.25
      value: {fileID: 21300000, guid: ae72fbb5cb46d0c4ea173ba98bf57738, type: 3}
    - time: 3.5
      value: {fileID: 21300000, guid: 850b819b85868be45aeccb52c5591943, type: 3}
    - time: 3.7166667
      value: {fileID: 21300000, guid: e600cc1bad86ce44da736bbd9589a106, type: 3}
    - time: 3.9666667
      value: {fileID: 21300000, guid: d54f6f624a6987e459396629d7cd9f3c, type: 3}
    - time: 4.2833333
      value: {fileID: 21300000, guid: 22c0e480ccf43504da21a9774699e7a8, type: 3}
    - time: 4.516667
      value: {fileID: 21300000, guid: 245a30c9931e4e0438defa70cfac2301, type: 3}
    - time: 4.75
      value: {fileID: 21300000, guid: f0daaacac41b24543b8bb8bfa3fa1361, type: 3}
    - time: 5
      value: {fileID: 21300000, guid: a646f27026ff970448bb3282ba439df3, type: 3}
    attribute: m_Sprite
    path: 
    classID: 212
    script: {fileID: 0}
  m_SampleRate: 60
  m_WrapMode: 0
  m_Bounds:
    m_Center: {x: 0, y: 0, z: 0}
    m_Extent: {x: 0, y: 0, z: 0}
  m_ClipBindingConstant:
    genericBindings:
    - serializedVersion: 2
      path: 0
      attribute: 0
      script: {fileID: 0}
      typeID: 212
      customType: 23
      isPPtrCurve: 1
    pptrCurveMapping:
    - {fileID: 21300000, guid: dde6c7a70e174504c9534af5a3ba27a5, type: 3}
    - {fileID: 21300000, guid: 035eace070425b74e8ad3c63542ed199, type: 3}
    - {fileID: 21300000, guid: 9decb4128e2699347a79f65bacd28589, type: 3}
    - {fileID: 21300000, guid: 537aad1bcc6979b40aef4597c15af49f, type: 3}
    - {fileID: 21300000, guid: 871355636a0e1254b82ea91ea35f535c, type: 3}
    - {fileID: 21300000, guid: 7b3422db432d9f84ab4ccfe069f856db, type: 3}
    - {fileID: 21300000, guid: befc147c90a8212409040648c01e7438, type: 3}
    - {fileID: 21300000, guid: ddd57e2d63ff2264bb8f1273c39a30d7, type: 3}
    - {fileID: 21300000, guid: 659eabe2398f41446aec3c7c9ba04ac1, type: 3}
    - {fileID: 21300000, guid: ceb385cabf433734ebad2b364498921a, type: 3}
    - {fileID: 21300000, guid: b1f7acede9e548243bfec2ff51d36e1c, type: 3}
    - {fileID: 21300000, guid: b0445ca25d55b724e9349d45a2b179b3, type: 3}
    - {fileID: 21300000, guid: d341b657d796df749a40fb1ce3ec1a62, type: 3}
    - {fileID: 21300000, guid: ae72fbb5cb46d0c4ea173ba98bf57738, type: 3}
    - {fileID: 21300000, guid: 850b819b85868be45aeccb52c5591943, type: 3}
    - {fileID: 21300000, guid: e600cc1bad86ce44da736bbd9589a106, type: 3}
    - {fileID: 21300000, guid: d54f6f624a6987e459396629d7cd9f3c, type: 3}
    - {fileID: 21300000, guid: 22c0e480ccf43504da21a9774699e7a8, type: 3}
    - {fileID: 21300000, guid: 245a30c9931e4e0438defa70cfac2301, type: 3}
    - {fileID: 21300000, guid: f0daaacac41b24543b8bb8bfa3fa1361, type: 3}
    - {fileID: 21300000, guid: a646f27026ff970448bb3282ba439df3, type: 3}
  m_AnimationClipSettings:
    serializedVersion: 2
    m_AdditiveReferencePoseClip: {fileID: 0}
    m_AdditiveReferencePoseTime: 0
    m_StartTime: 0
    m_StopTime: 5.016667
    m_OrientationOffsetY: 0
    m_Level: 0
    m_CycleOffset: 0
    m_HasAdditiveReferencePose: 0
    m_LoopTime: 1
    m_LoopBlend: 1
    m_LoopBlendOrientation: 0
    m_LoopBlendPositionY: 0
    m_LoopBlendPositionXZ: 0
    m_KeepOriginalOrientation: 0
    m_KeepOriginalPositionY: 1
    m_KeepOriginalPositionXZ: 0
    m_HeightFromFeet: 0
    m_Mirror: 0
  m_EditorCurves: []
  m_EulerEditorCurves: []
  m_HasGenericRootTransform: 0
  m_HasMotionFloatCurves: 0
  m_Events: []
